[
    {
        "sobject": "Contact",
        "saveRefs": true,
        "resolveRefs": false,
        "files": [
            "Contacts.json"
        ]
    },
    {
        "sobject": "Mission__c",
        "saveRefs": false,
        "resolveRefs": true,
        "files": [
            "Mission__cs.json"
        ]
    }
]